{
    "images": [
        { 
            "fullsize":"http://placehold.it/812x606&text=category-2+fullsize1", 
            "thumbnail":"http://placehold.it/160x200&text=category-2+thumbnail1", 
            "mobile":"http://placehold.it/150x150&text=category-2+mobile1",
            "category":"category-2",
            "title":"This is a title 1",
            "description":"This is a subtitle 1",
            "order": "1",
            "id": "1"
        },
        { 
            "fullsize":"http://placehold.it/812x606&text=category-2+fullsize2", 
            "thumbnail":"http://placehold.it/160x200&text=category-2+thumbnail2", 
            "mobile":"http://placehold.it/150x150&text=category-2+mobile2",
            "category":"category-2",
            "title":"This is a title 2",
            "description":"This is a subtitle 2",
            "order": "2",
            "id": "2"
        }
        ,
        { 
            "fullsize":"http://placehold.it/812x606&text=category-2+fullsize3", 
            "thumbnail":"http://placehold.it/160x200&text=category-2+thumbnail3", 
            "mobile":"http://placehold.it/150x150&text=category-2+mobile3",
            "category":"category-2",
            "title":"This is a title 3",
            "description":"This is a subtitle 3",
            "order": "3",
            "id": "3"
        }
        ,
        { 
            "fullsize":"http://placehold.it/812x606&text=category-2+fullsize4", 
            "thumbnail":"http://placehold.it/160x200&text=category-2+thumbnail4", 
            "mobile":"http://placehold.it/150x150&text=category-2+mobile4",
            "category":"category-2",
            "title":"This is a title 4",
            "description":"This is a subtitle 4",
            "order": "4",
            "id": "4"
        }
        ,
        { 
            "fullsize":"http://placehold.it/812x606&text=category-2+fullsize5", 
            "thumbnail":"http://placehold.it/160x200&text=category-2+thumbnail5", 
            "mobile":"http://placehold.it/150x150&text=category-2+mobile5",
            "category":"category-2",
            "title":"This is a title 5",
            "description":"This is a subtitle 5",
            "order": "5",
            "id": "5"
        }
    ]
}