{
    "images": [
        { 
            "fullsize":"http://placehold.it/812x606&text=subcategory-3+fullsize1", 
            "thumbnail":"http://placehold.it/160x200&text=subcategory-3+thumbnail1", 
            "mobile":"http://placehold.it/150x150&text=subcategory-3+mobile1",
            "category":"subcategory-3",
            "title":"This is a title 1",
            "description":"This is a subtitle 1",
            "order": "1",
            "id": "1"
        },
        { 
            "fullsize":"http://placehold.it/812x606&text=subcategory-3+fullsize2", 
            "thumbnail":"http://placehold.it/160x200&text=subcategory-3+thumbnail2", 
            "mobile":"http://placehold.it/150x150&text=subcategory-3+mobile2",
            "category":"subcategory-3",
            "title":"This is a title 2",
            "description":"This is a subtitle 2",
            "order": "2",
            "id": "2"
        }
        ,
        { 
            "fullsize":"http://placehold.it/812x606&text=subcategory-3+fullsize3", 
            "thumbnail":"http://placehold.it/160x200&text=subcategory-3+thumbnail3", 
            "mobile":"http://placehold.it/150x150&text=subcategory-3+mobile3",
            "category":"subcategory-3",
            "title":"This is a title 3",
            "description":"This is a subtitle 3",
            "order": "3",
            "id": "3"
        }
        ,
        { 
            "fullsize":"http://placehold.it/812x606&text=subcategory-3+fullsize4", 
            "thumbnail":"http://placehold.it/160x200&text=subcategory-3+thumbnail4", 
            "mobile":"http://placehold.it/150x150&text=subcategory-3+mobile4",
            "category":"subcategory-3",
            "title":"This is a title 4",
            "description":"This is a subtitle 4",
            "order": "4",
            "id": "4"
        }
        ,
        { 
            "fullsize":"http://placehold.it/812x606&text=subcategory-3+fullsize5", 
            "thumbnail":"http://placehold.it/160x200&text=subcategory-3+thumbnail5", 
            "mobile":"http://placehold.it/150x150&text=subcategory-3+mobile5",
            "category":"subcategory-3",
            "title":"This is a title 5",
            "description":"This is a subtitle 5",
            "order": "5",
            "id": "5"
        }
    ]
}